…
To perform the enrichment analysis we use:
```{r eval=FALSE, include=TRUE}
accnet_enr_result <- accnet_enrichment_analysis(efaecium_accnet_nr, cluster = ef_800_cl)

accnet_enr_result

# A tibble: 854,887 x 14
   Target Source Cluster perClusterFreq ClusterFreq ClusterGenomeSi… perTotalFreq TotalFreq OdsRatio  pvalue
   <chr>  <chr>    <dbl>          <dbl>       <int>            <int>        <dbl>     <int>    <dbl>   <dbl>
 1 WP_00… GCF_0…       1          0.248          53              214        0.145       172     1.71 2.44e-6
 2 WP_00… GCF_0…       1          0.248          53              214        0.145       172     1.71 2.44e-6
 3 WP_00… GCF_0…       1          0.248          53              214        0.145       172     1.71 2.44e-6
 4 WP_00… GCF_0…       1          0.248          53              214        0.145       172     1.71 2.44e-6
 5 WP_00… GCF_0…       1          0.248          53              214        0.145       172     1.71 2.44e-6
 6 WP_00… GCF_0…       1          0.248          53              214        0.145       172     1.71 2.44e-6
 7 WP_00… GCF_0…       1          0.248          53              214        0.145       172     1.71 2.44e-6
 8 WP_00… GCF_0…       1          0.248          53              214        0.145       172     1.71 2.44e-6
 9 WP_00… GCF_0…       1          0.248          53              214        0.145       172     1.71 2.44e-6
10 WP_00… GCF_0…       1          0.248          53              214        0.145       172     1.71 2.44e-6
# … with 854,877 more rows, and 4 more variables: padj <dbl>, AccnetGenomeSize <int>, AccnetProteinSize <int>,
#   Annot <chr>
```
…
